95302551G,1981-08-17
30447095V,1971-08-05
89103190V,2001-11-05
30531996W,1980-05-02
78148170N,1968-08-03
51605686B,1976-12-31
41215770T,1965-08-10
14593774K,1988-01-13
05448421C,1969-09-27
31218820T,1993-10-08
51266530J,1976-04-12
45185294T,1968-05-10
77972183K,1988-02-26
64358048T,2001-12-27
81974228C,1994-04-23
28729281G,1992-08-13
92283384R,1988-09-28
88977452C,1988-02-18
37518218C,1965-12-29
77629130J,2002-12-11
32077097D,1992-08-29
65732735T,1966-10-13
31647113X,1977-07-29
81666058G,1976-01-14
13410741Q,1981-04-17
45393627E,1970-10-04
81255212F,1960-03-21
90227369W,1994-11-17
01744939K,1980-05-10
00097347B,1998-07-05
84627233K,1963-07-01
05067853X,1975-11-21
39540403E,1985-02-19
11895379D,1992-08-21
27123605G,1978-02-16
83216230E,1970-10-17
58910801G,1989-08-19
62629726J,1965-09-27
12005424E,1989-10-26
22792022B,1976-03-04
11243406V,1988-06-19
28746136T,1994-10-23
44881343V,1961-07-16
89665193S,1991-11-18
48829879M,1989-12-23
44497369M,1976-12-30
93762076T,1984-09-13
35057317G,1997-11-22
61739360T,1965-10-17
31422905Y,1986-02-21
81198706N,1976-07-01
13891090X,1993-02-12
17179535F,1955-07-04
33824454X,1969-01-07
69248795G,1982-06-27
70667966Y,1982-09-07
41707956D,1990-08-19
38042432H,1978-10-11
08141190H,1967-10-23
71947138X,1971-01-25
05005100R,1982-03-24
74716533K,1987-06-11
95817965B,1983-01-23
60501851Y,1979-01-22
18009264B,1965-01-02
76121535E,1979-10-14
05486504S,1975-07-10
76847778V,1967-09-06
90011195M,1992-12-18
52704314K,1947-04-26
08713480E,1972-03-05
75347679R,1998-01-23
40950966H,1989-12-18
15653136A,1996-12-26
