67538464E,BBDD
67538464E,DAW
45185294T,LM
45185294T,PROG
45185294T,DWEC
71354056Y,DWES
67538464E,PROG
89939657C,CAC
89939657C,GRH
26330456X,GF
26330456X,SE
32769559X,LA
32769559X,NI
44497369M,MI
44497369M,CDI
02165682W,PM
02165682W,IC
31422905Y,OEV
31422905Y,TVN
02165682W,CDI
31422905Y,IC
14257470T,PRP
14257470T,EMT
99935360S,EMT
99935360S,RR
99935360S,GDP
29318262R,DWES
97067036K,FOL
29318262R,EIE
